--
-- PostgreSQL database dump
--

-- Dumped from database version 9.6.2
-- Dumped by pg_dump version 9.6.2

SET statement_timeout = 0;
SET lock_timeout = 0;
SET idle_in_transaction_session_timeout = 0;
SET client_encoding = 'UTF8';
SET standard_conforming_strings = on;
SET check_function_bodies = false;
SET client_min_messages = warning;
SET row_security = off;

--
-- Name: plpgsql; Type: EXTENSION; Schema: -; Owner: 
--

CREATE EXTENSION IF NOT EXISTS plpgsql WITH SCHEMA pg_catalog;


--
-- Name: EXTENSION plpgsql; Type: COMMENT; Schema: -; Owner: 
--

COMMENT ON EXTENSION plpgsql IS 'PL/pgSQL procedural language';


SET search_path = public, pg_catalog;

SET default_tablespace = '';

SET default_with_oids = false;

--
-- Name: ar_internal_metadata; Type: TABLE; Schema: public; Owner: nathanjacoby
--

CREATE TABLE ar_internal_metadata (
    key character varying NOT NULL,
    value character varying,
    created_at timestamp without time zone NOT NULL,
    updated_at timestamp without time zone NOT NULL
);


ALTER TABLE ar_internal_metadata OWNER TO nathanjacoby;

--
-- Name: menus; Type: TABLE; Schema: public; Owner: nathanjacoby
--

CREATE TABLE menus (
    id bigint NOT NULL,
    name character varying,
    short_description character varying,
    long_description character varying,
    created_at timestamp without time zone NOT NULL,
    updated_at timestamp without time zone NOT NULL
);


ALTER TABLE menus OWNER TO nathanjacoby;

--
-- Name: menus_id_seq; Type: SEQUENCE; Schema: public; Owner: nathanjacoby
--

CREATE SEQUENCE menus_id_seq
    START WITH 1
    INCREMENT BY 1
    NO MINVALUE
    NO MAXVALUE
    CACHE 1;


ALTER TABLE menus_id_seq OWNER TO nathanjacoby;

--
-- Name: menus_id_seq; Type: SEQUENCE OWNED BY; Schema: public; Owner: nathanjacoby
--

ALTER SEQUENCE menus_id_seq OWNED BY menus.id;


--
-- Name: schema_migrations; Type: TABLE; Schema: public; Owner: nathanjacoby
--

CREATE TABLE schema_migrations (
    version character varying NOT NULL
);


ALTER TABLE schema_migrations OWNER TO nathanjacoby;

--
-- Name: menus id; Type: DEFAULT; Schema: public; Owner: nathanjacoby
--

ALTER TABLE ONLY menus ALTER COLUMN id SET DEFAULT nextval('menus_id_seq'::regclass);


--
-- Data for Name: ar_internal_metadata; Type: TABLE DATA; Schema: public; Owner: nathanjacoby
--

COPY ar_internal_metadata (key, value, created_at, updated_at) FROM stdin;
environment	development	2017-08-08 06:57:18.020487	2017-08-08 06:57:18.020487
\.


--
-- Data for Name: menus; Type: TABLE DATA; Schema: public; Owner: nathanjacoby
--

COPY menus (id, name, short_description, long_description, created_at, updated_at) FROM stdin;
5	Eggs & Toast	Eggs done your way- poached or fried w/ Turkish toast. GF available	Eggs done your way - poached or fried with Turkish toast...build your own & add sides when you press order...	2017-08-08 08:04:21.888887	2017-08-08 08:04:21.888887
6	Katz Pajamas	Old skool savoury mince on toast with poached egg, yes it has peas & carrot. GF Availalbe	Old skool savoury mince on toast with poached egg, yes it has peas & carrot... choose any add ons when you press order...	2017-08-08 08:09:33.994992	2017-08-08 08:09:33.994992
7	Bubble 'n' Squeek	Corn, peas, carrot & potato hash w/ cheese, pea & mint salsa, egg. VEGETARIAN	Corn, peas, carrot & potato hash smothered w/ bubbling halloumi cheese, smashed pea & mint salsa, fried egg...better than Nan's...Even better with a side of triple smoked bacon... choose your sides when your press order...	2017-08-08 08:16:43.446927	2017-08-08 08:16:43.446927
8	Scooby Doo	Cheese kransky wrapped in bacon with fried egg & hollandaise, Turkish toast. GF Available	Cheese kransky wrapped in bacon with fried egg & hollandaise, Turkish toast...oooohh don't forget the sauce DUDE! Add a side of bacon to make a MAN-fast!	2017-08-08 08:16:56.535919	2017-08-08 08:16:56.535919
9	Devilish Eggs	Two of the world's hottest chillis- this is not for the faint hearted. VEGETARIAN | GF Available	Using two of the world's hottest chillis- this is not for the faint hearted, you may need yoghurt after!..Eggs, rich spicy tomato ragu & halloumi on toasted Turkish.	2017-08-08 08:17:12.135134	2017-08-08 08:17:12.135134
10	Matador	Tomato, chorizo, Aussie jack cheese, fried egg all baked in a clay pot. GF Available	Tomato, chorizo, Aussie jack cheese, fried egg all baked in a clay pot and lathered with chimichurri w/ toasted Turkish. Great with a side of halloumi!	2017-08-08 08:17:27.235257	2017-08-08 08:17:27.235257
11	The Bogan Burger n hash browns	Fried egg with cheese, bacon, BBQ sauce on buttered Turkish toast.	Fried egg with cheese, bacon, BBQ sauce on buttered Turkish toast, this will get your mullet going. Add hollandaise for that extra V8 grunt!	2017-08-08 08:17:38.152248	2017-08-08 08:17:38.152248
12	Get Smashed	Smashed avo & feta on sourdough! GF Availalbe	Smashed avo & marinated feta on sourdough... why not add a poached egg and some bacon?	2017-08-08 08:17:50.611591	2017-08-08 08:17:50.611591
13	Eggs Benedict	Our famous eggs benny..taste it & you'll know why!.. GF Available	Our famous eggs benny with your choice of protein..taste it & you'll know why!	2017-08-08 08:18:27.620014	2017-08-08 08:18:27.620014
14	Persian Ragu	Slow cooked, Za'atar spiced Perisan tomato ragu. VEGAN | GF available 	Slow cooked, Za'atar spiced Persian tomato ragu  ginger marinated sweet potato crisps... Even better with a poached egg... It is said that Za'atar (a mixture of thyme, sumac and seasame seeds) gives strength and clears the mind.	2017-08-08 08:18:41.758674	2017-08-08 08:18:41.758674
15	Garlic Bread	House made cheesy garlic bread!	House made buttery yum yum garlic bread!	2017-08-08 08:18:58.242947	2017-08-08 08:18:58.242947
16	Toastie Royale	Cheese toastie writ LARGE!	Thick cut sourdough bread with cheese, more cheese, hollandaise and bacon... served with hash browns	2017-08-08 08:19:25.37379	2017-08-08 08:19:25.37379
\.


--
-- Name: menus_id_seq; Type: SEQUENCE SET; Schema: public; Owner: nathanjacoby
--

SELECT pg_catalog.setval('menus_id_seq', 19, true);


--
-- Data for Name: schema_migrations; Type: TABLE DATA; Schema: public; Owner: nathanjacoby
--

COPY schema_migrations (version) FROM stdin;
20170808060016
\.


--
-- Name: ar_internal_metadata ar_internal_metadata_pkey; Type: CONSTRAINT; Schema: public; Owner: nathanjacoby
--

ALTER TABLE ONLY ar_internal_metadata
    ADD CONSTRAINT ar_internal_metadata_pkey PRIMARY KEY (key);


--
-- Name: menus menus_pkey; Type: CONSTRAINT; Schema: public; Owner: nathanjacoby
--

ALTER TABLE ONLY menus
    ADD CONSTRAINT menus_pkey PRIMARY KEY (id);


--
-- Name: schema_migrations schema_migrations_pkey; Type: CONSTRAINT; Schema: public; Owner: nathanjacoby
--

ALTER TABLE ONLY schema_migrations
    ADD CONSTRAINT schema_migrations_pkey PRIMARY KEY (version);


--
-- PostgreSQL database dump complete
--

